<svg width="75" height="75" viewBox="0 0 75 75" fill="none" xmlns="http://www.w3.org/2000/svg">
<path fill-rule="evenodd" clip-rule="evenodd" d="M46 0H29V29H0V46H29V75H46V46H75V29H46V0Z" fill="#C4C4C4"/>
</svg>
